1	1	CAFÉ ĐEN ĐÁ	Café đen đá theo phong cách Việt Nam.	19000	21000	24000	
2	1	CAFÉ SỮA ĐÁ	Café với sữa theo phong cách Việt Nam.	21000	23000	26000	
3	1	CAFÉ LATTE	Espresso pha cùng sữa tươi & sữa béo theo phong cách Ý.	26000	29000	33000	"1,2,3,4,5,6,7,8,9,10,11,12,13,14"
4	1	CAFÉ MACCHIATO	Espresso pha cùng hỗn hợp sữa béo theo phong cách Ý.	26000	29000	33000	"1,2,3,4,5,6,7,8,9,10,11,12,13,14"
5	1	CAFÉ MOCHA	Espresso pha cùng sữa tươi & chocolate theo phong cách Ý.	26000	29000	33000	"1,2,3,4,5,6,7,8,9,10,11,12,13,14"
6	1	CAFÉ FRAPPÉ	Espresso pha cùng hỗn hợp sữa theo phong cách Ý.	26000	29000	33000	"1,2,3,4,5,6,7,8,9,10,11,12,13,14"
7	1	CAFÉ TOWNDELI	Espresso mang hương vị đặc biệt từ TownDeli.	31000	35000	39000	"1,2,3,4,5,6,7,8,9,10,11,12,13,14"
8	2	HỒNG TRÀ TRÂN CHÂU	Hồng trà tươi cùng trân châu.	23000	26000	29000	"1,2,3,4,5,6,7,8,9,10,11,12,13,14,15,16,17,18,19,20,21,22"
9	2	TRÀ CHANH	Trà tươi pha cùng chanh.	21000	24000	27000	"1,2,3,4,5,6,7,8,9,10,11,12,13,14,15,16,17,18,19,20,21,22"
10	2	TRÀ CHANH DÂY	Trà tươi pha cùng chanh dây.	24000	28000	32000	"1,2,3,4,5,6,7,8,9,10,11,12,13,14,15,16,17,18,19,20,21,22"
11	2	TRÀ BẠC HÀ	Trà tươi pha cùng bạc hà.	24000	28000	32000	"1,2,3,4,5,6,7,8,9,10,11,12,13,14,15,16,17,18,19,20,21,22"
12	2	TRÀ KIWI	Trà tươi pha cùng kiwi.	27000	31000	35000	"1,2,3,4,5,6,7,8,9,10,11,12,13,14,15,16,17,18,19,20,21,22"
13	2	TRÀ PHÚC BỒN TỬ	Trà tươi pha cùng phúc bồn tử.	27000	31000	35000	"1,2,3,4,5,6,7,8,9,10,11,12,13,14,15,16,17,18,19,20,21,22"
14	2	TRÀ VIỆT QUẤT	Trà tươi pha cùng việt quất.	27000	31000	35000	"1,2,3,4,5,6,7,8,9,10,11,12,13,14,15,16,17,18,19,20,21,22"
15	2	TRÀ DÂU	"Trà tươi pha cùng dâu, có kèm dâu tươi."	28000	32000	36000	"1,2,3,4,5,6,7,8,9,10,11,12,13,14,15,16,17,18,19,20,21,22"
16	2	TRÀ TÁO	"Trà tươi pha cùng táo, có kèm táo tươi."	28000	32000	36000	"1,2,3,4,5,6,7,8,9,10,11,12,13,14,15,16,17,18,19,20,21,22"
17	2	TRÀ ĐÀO	"Trà tươi pha cùng đào, có kèm đào tươi."	28000	32000	36000	"1,2,3,4,5,6,7,8,9,10,11,12,13,14,15,16,17,18,19,20,21,22"
18	2	TRÀ VẢI	"Trà tươi pha cùng vải, có kèm vải tươi."	28000	32000	36000	"1,2,3,4,5,6,7,8,9,10,11,12,13,14,15,16,17,18,19,20,21,22"
19	3	TRÀ SỮA THÁI ĐỎ	Trà sữa đỏ pha theo phong cách Thái.	22000	25000	28000	"1,2,3,4,5,6,7,8,9,10,11,12,13,14,15,16,17,18,19,20,21,22,23"
20	3	TRÀ SỮA THÁI XANH	Trà sữa xanh pha theo phong cách Thái.	22000	25000	28000	"1,2,3,4,5,6,7,8,9,10,11,12,13,14,15,16,17,18,19,20,21,22,23"
21	3	TRÀ SỮA TRÂN CHÂU	Trà sữa truyền thống cùng trân châu.	26000	29000	33000	"1,2,3,4,5,6,7,8,9,10,11,12,13,14,15,16,17,18,19,20,21,22,23"
22	3	TRÀ SỮA BÁNH FLAN	Trà sữa truyền thống cùng bánh flan.	26000	29000	33000	"1,2,3,4,5,6,7,8,9,10,11,12,13,14,15,16,17,18,19,20,21,22,23"
23	3	TRÀ SỮA THẠCH TRÁI CÂY	Trà sữa truyền thống cùng thạch trái cây.	26000	29000	33000	"1,2,3,4,5,6,7,8,9,10,11,12,13,14,15,16,17,18,19,20,21,22,23"
24	3	TRÀ SỮA THẠCH CAFÉ	Trà sữa truyền thống cùng thạch café.	26000	29000	33000	"1,2,3,4,5,6,7,8,9,10,11,12,13,14,15,16,17,18,19,20,21,22,23"
25	3	TRÀ SỮA THẠCH CHOCOLATE	Trà sữa truyền thống cùng thạch chocolate.	26000	29000	33000	"1,2,3,4,5,6,7,8,9,10,11,12,13,14,15,16,17,18,19,20,21,22,23"
26	3	TRÀ SỮA THẠCH TRÀ XANH	Trà sữa truyền thống cùng thạch trà xanh.	26000	29000	33000	"1,2,3,4,5,6,7,8,9,10,11,12,13,14,15,16,17,18,19,20,21,22,23"
27	3	TRÀ SỮA THẠCH PHÔ MAI	Trà sữa truyền thống cùng thạch phô mai.	26000	29000	33000	"1,2,3,4,5,6,7,8,9,10,11,12,13,14,15,16,17,18,19,20,21,22,23"
28	3	TRÀ SỮA ĐẬU ĐỎ	Trà sữa truyền thống cùng đậu đỏ Nhật Bản.	31000	34000	38000	"1,2,3,4,5,6,7,8,9,10,11,12,13,14,15,16,17,18,19,20,21,22,23"
29	3	TRÀ SỮA OOLONG	Trà sữa oolong truyền thống.	24000	28000	32000	"1,2,3,4,5,6,7,8,9,10,11,12,13,14,15,16,17,18,19,20,21,22,23"
30	3	TRÀ SỮA CHOCOLATE	Trà sữa truyền thống pha cùng chocolate.	24000	28000	32000	"1,2,3,4,5,6,7,8,9,10,11,12,13,14,15,16,17,18,19,20,21,22,23"
31	3	TRÀ SỮA CARAMEL	Trà sữa truyền thống pha cùng caramel.	24000	28000	32000	"1,2,3,4,5,6,7,8,9,10,11,12,13,14,15,16,17,18,19,20,21,22,23"
32	3	TRÀ SỮA BẠC HÀ	Trà sữa truyền thống pha cùng bạc hà.	24000	28000	32000	"1,2,3,4,5,6,7,8,9,10,11,12,13,14,15,16,17,18,19,20,21,22,23"
33	3	TRÀ SỮA CHANH DÂY	Trà sữa trái cây hương vị chanh dây.	24000	28000	32000	"1,2,3,4,5,6,7,8,9,10,11,12,13,14,15,16,17,18,19,20,21,22,23"
34	3	TRÀ SỮA KIWI	Trà sữa trái cây hương vị kiwi.	24000	28000	32000	"1,2,3,4,5,6,7,8,9,10,11,12,13,14,15,16,17,18,19,20,21,22,23"
35	3	TRÀ SỮA PHÚC BỒN TỬ	Trà sữa trái cây hương vị phúc bồn tử.	24000	28000	32000	"1,2,3,4,5,6,7,8,9,10,11,12,13,14,15,16,17,18,19,20,21,22,23"
36	3	TRÀ SỮA VIỆT QUẤT	Trà sữa trái cây hương vị việt quất.	24000	28000	32000	"1,2,3,4,5,6,7,8,9,10,11,12,13,14,15,16,17,18,19,20,21,22,23"
37	3	TRÀ SỮA DÂU	Trà sữa trái cây hương vị dâu.	24000	28000	32000	"1,2,3,4,5,6,7,8,9,10,11,12,13,14,15,16,17,18,19,20,21,22,23"
38	3	TRÀ SỮA TÁO	Trà sữa trái cây hương vị táo.	24000	28000	32000	"1,2,3,4,5,6,7,8,9,10,11,12,13,14,15,16,17,18,19,20,21,22,23"
39	3	TRÀ SỮA ĐÀO	Trà sữa trái cây hương vị đào.	24000	28000	32000	"1,2,3,4,5,6,7,8,9,10,11,12,13,14,15,16,17,18,19,20,21,22,23"
40	3	MATCHA LATTE	Trà xanh Nhật Bản pha cùng hỗn hợp sữa đặc biệt.	31000	35000	39000	"1,2,3,4,5,6,7,8,9,10,11,12,13,14,15,16,17,18,19,20,21,22,23"
41	4	CHOCO LATTE	Chocolate tươi pha cùng hỗn hợp sữa.	26000	29000	33000	"1,2,3,4,5,6,7,8,9,10,11,12,13,14,15,16,17,18,19,20,21,22"
42	4	CHOCO MINT	Chocolate tươi pha cùng bạc hà.	26000	29000	33000	"1,2,3,4,5,6,7,8,9,10,11,12,13,14,15,16,17,18,19,20,21,22"
43	4	CHOCO CARAMEL	Chocolate tươi pha cùng caramel.	26000	29000	33000	"1,2,3,4,5,6,7,8,9,10,11,12,13,14,15,16,17,18,19,20,21,22"
44	4	CARAMEL LATTE	Caramel pha cùng hỗn hợp sữa.	26000	29000	33000	"1,2,3,4,5,6,7,8,9,10,11,12,13,14,15,16,17,18,19,20,21,22"
45	5	YO BẠC HÀ	Sữa chua lắc cùng bạc hà và hỗn hợp sữa.	26000	29000	33000	"1,2,3,4,5,6,7,8,9,10,11,12,13,14,15,16,17,18,19,20,21,22"
46	5	YO CHANH DÂY	Sữa chua lắc cùng mứt chanh dây và hỗn hợp sữa.	26000	29000	33000	"1,2,3,4,5,6,7,8,9,10,11,12,13,14,15,16,17,18,19,20,21,22"
47	5	YO NHA ĐAM & CAM	"Sữa chua lắc cùng mứt nha đam, cam và hỗn hợp sữa."	26000	29000	33000	"1,2,3,4,5,6,7,8,9,10,11,12,13,14,15,16,17,18,19,20,21,22"
48	5	YO XOÀI & DỨA	"Sữa chua lắc cùng mứt xoài, dứa và hỗn hợp sữa."	26000	29000	33000	"1,2,3,4,5,6,7,8,9,10,11,12,13,14,15,16,17,18,19,20,21,22"
49	5	YO NHO ĐEN	Sữa chua lắc cùng mứt nho đen và hỗn hợp sữa.	26000	29000	33000	"1,2,3,4,5,6,7,8,9,10,11,12,13,14,15,16,17,18,19,20,21,22"
50	5	YO PHÚC BỒN TỬ	Sữa chua lắc cùng mứt phúc bồn tử và hỗn hợp sữa.	31000	35000	39000	"1,2,3,4,5,6,7,8,9,10,11,12,13,14,15,16,17,18,19,20,21,22"
51	5	YO VIỆT QUẤT	Sữa chua lắc cùng mứt việt quất và hỗn hợp sữa.	31000	35000	39000	"1,2,3,4,5,6,7,8,9,10,11,12,13,14,15,16,17,18,19,20,21,22"
52	5	YO KIWI	Sữa chua lắc cùng mứt kiwi và hỗn hợp sữa.	31000	35000	39000	"1,2,3,4,5,6,7,8,9,10,11,12,13,14,15,16,17,18,19,20,21,22"
53	5	YO DÂU	"Sữa chua lắc cùng mứt dâu và hỗn hợp sữa, có kèm dâu tươi."	31000	35000	39000	"1,2,3,4,5,6,7,8,9,10,11,12,13,14,15,16,17,18,19,20,21,22"
54	5	YO TÁO	"Sữa chua lắc cùng mứt táo và hỗn hợp sữa, có kèm táo tươi."	31000	35000	39000	"1,2,3,4,5,6,7,8,9,10,11,12,13,14,15,16,17,18,19,20,21,22"
55	5	YO ĐÀO	"Sữa chua lắc cùng mứt đào và hỗn hợp sữa, có kèm đào tươi."	31000	35000	39000	"1,2,3,4,5,6,7,8,9,10,11,12,13,14,15,16,17,18,19,20,21,22"
56	5	YO VẢI	"Sữa chua lắc cùng mứt vải và hỗn hợp sữa, có kèm vải tươi."	31000	35000	39000	"1,2,3,4,5,6,7,8,9,10,11,12,13,14,15,16,17,18,19,20,21,22"
57	5	MAKE YOUR OWN YO	Sữa chua lắc tự chọn 2 hương vị cùng hỗn hợp sữa.	31000	35000	39000	"1,2,3,4,5,6,7,8,9,10,11,12,13,14,15,16,17,18,19,20,21,22"
58	6	BLUE SKY	"Soda Ý pha cùng blue curacao, kiwi và chanh."	23000	26000	29000	"1,2,3,4,5,6,7,8,9,10,11,12,13,14,15,16,17,18,19,20,21,22"
59	6	BLUE OCEAN	"Soda Ý pha cùng blue curacao, táo và chanh."	23000	26000	29000	"1,2,3,4,5,6,7,8,9,10,11,12,13,14,15,16,17,18,19,20,21,22"
60	6	ANGEL LOVE	"Soda Ý pha cùng blue curacao, chanh dây và chanh."	23000	26000	29000	"1,2,3,4,5,6,7,8,9,10,11,12,13,14,15,16,17,18,19,20,21,22"
61	6	MOON LIGHT	"Soda Ý pha cùng kiwi, chanh dây và chanh."	23000	26000	29000	"1,2,3,4,5,6,7,8,9,10,11,12,13,14,15,16,17,18,19,20,21,22"
62	6	WILD ROMANCE	"Soda Ý pha cùng kiwi, táo và chanh."	23000	26000	29000	"1,2,3,4,5,6,7,8,9,10,11,12,13,14,15,16,17,18,19,20,21,22"
63	6	MAKE YOUR OWN SODA	Soda Ý pha cùng 2 hương vị tự chọn.	23000	26000	29000	"1,2,3,4,5,6,7,8,9,10,11,12,13,14,15,16,17,18,19,20,21,22"
